{
  "type": "service_account",
  "project_id": "tcc-auth",
  "private_key_id": "7b3be70ce16b168fc74bb209f473cc39fb3352a0",
  "private_key": "-----BEGIN PRIVATE KEY-----\nMIIEvQIBADANBgkqhkiG9w0BAQEFAASCBKcwggSjAgEAAoIBAQCRHvwNKQcZZ+iK\ngUIKjkDkB8oszhiQnDqRGSZR24+i0t/8Kd0byWDS8PyxWB6j/G4pzxuWURwGXbzU\ni9iiuU6mYRcGpn3srEU65lXS2bh/w4XElfp41oNGD9nzxJPmjBkP7y8hU4TcbY0V\niKQkDcRWqTK8nm0H6iNKFmRQoybHBO72Fvan70r1F9Fiari9JzSY5o7K5YhGHvVW\np7NDpgo4yKO+yWb6dUBjQFzLTkm4vVtZETW0VolBWWV3JcL/AiHd8m04FdFLxjlA\n+GwVQTwEaoILQO+Bs19zLYOZ1a0FRGuyjoHwC/UK0BhyOqVUVpMhIDodeofCR/eX\nEdDi4zz7AgMBAAECggEAR36LUHR5AeQ2JR4/CfJBN9Y6nU4/veap19gbD9LqdZ4M\nKS/6tXjFkcaVx00Rc1qmb0SQY8K72ssNf20SIkDG5aMJdAZMHXBVfwoBGCqZAaCy\n40G8LxIHhFnE15pt/vPgWQBOKM37s5jpG8XAj96UbtlWnKQ0NOT9078qVqu6K+ud\nX7xJ/uN8vRdsFJmSCF35MqJrT+92dcACU7g/RSy7c7L6XC1hVgNDNuoFr/FJ5l3l\nJYWQBzy6yR/uUbJVhyWlx1BmFZ07ydkG3oIHTWpykSK+VLQbeHjY0w8BC4skFbTK\nn6HTaS8XzzdmGE6M5jFXBJc2uICeC/w0eO5ikJfQqQKBgQDBDETWmyPNqo6qmypX\n/Rfef0ZvzLn2w7PFeXxqzaCJ74HtD+Rlq9wpJEvV/0ZxI6BkN/uixKRqxv+6EKHD\nEdQYCNMGEsS6LxhMk5w/6Tk/uZXwLLiLWy5mkz1klZExWHQVKPWj4Vb2nHKAExCY\nJCoDitViJk3K6I4Ot1buviR+NQKBgQDAccGej9j+ygHX+RJKS853MslwXT1FPWLW\nVUV01e3mV+znEmuFxZcLGPM8v9gZeagzUnGjzXoDmaPRJRjc4IIRwPdNqYdH8gYA\nN7hOxy+G6pZI4VwjgnPNxCH6KKrlQ+heLXW78oIE5AVN+CmzdYCa/UdiV7ztl687\n1zs7dm70bwKBgCYnn59u8Eeg8yujGV5kpogSTcChDQxJp8la9o1BcP5yORK6tmCl\n9BCpnNeB6dFIwlWsfu6vwPNdu4Nx8BbW+j152QN1SC6oSjwwXIyBMxB2RL1AiYT5\nk5UweszbhuPi4Kah/tLSIdcCGttXaUs4spkaoowQmAWHqzQbZnIvYJUVAoGAZJNP\nOJo/MzHJ8uC2IWQq/HrrcjEYk3Y4kIGyMhSYJ7kuE7m5vgj9Hoykmsw8mVvOfzwI\nLi52JSmHxwdXTiB7eeHanZkLHZusbTKxvWI2QZGah25YJCrKcPCfPUlBv15VM9sY\nW+iq8PlmmFApIyQ22UmjpA7sq1OJ/oFG8JW9+TsCgYEAr79H3qUYkl4utsq56ibB\nonFb5XHrvIopoibAXvN19KOLq2R9+aCVnKFHZTtHSDpGHIxlb3VW+axoBJrT7TFQ\nCJ8tNdZWe4OZIyzRWAEixaJPyrBXXe5aySgpENu6vtOm8a0QwS85oNjR+iyLEgLp\n86W3McAatIh1YYdQkhp9jmY=\n-----END PRIVATE KEY-----\n",
  "client_email": "firebase-adminsdk-vd5me@tcc-auth.iam.gserviceaccount.com",
  "client_id": "112161800725805785121",
  "auth_uri": "https://accounts.google.com/o/oauth2/auth",
  "token_uri": "https://oauth2.googleapis.com/token",
  "auth_provider_x509_cert_url": "https://www.googleapis.com/oauth2/v1/certs",
  "client_x509_cert_url": "https://www.googleapis.com/robot/v1/metadata/x509/firebase-adminsdk-vd5me%40tcc-auth.iam.gserviceaccount.com"
}
